<?xml version="1.0" encoding="UTF-8"?>
<svg width="50px" height="50px" viewBox="0 0 50 50" version="1.1" xmlns="http://www.w3.org/2000/svg" xmlns:xlink="http://www.w3.org/1999/xlink">
    <!-- Generator: Sketch 64 (93537) - https://sketch.com -->
    <title>register-grill-icon</title>
    <desc>Created with Sketch.</desc>
    <g id="register-grill-icon" stroke="none" stroke-width="1" fill="none" fill-rule="evenodd" stroke-linecap="round" stroke-linejoin="round">
        <g id="Group-15" transform="translate(3.000000, 4.000000)" stroke="#FFFFFF" stroke-width="3.325">
            <g id="Group-14">
                <g id="traeger-shop-grills">
                    <g>
                        <line x1="5.9846485" y1="26.5282275" x2="0.83009005" y2="41.048303" id="Stroke-3"></line>
                        <polyline id="Stroke-4" points="2.920376 18.570543 2.920376 23.073448 32.3229615 23.073448 32.3229615 14.378307 2.920376 14.378307 2.920376 0.554838 32.3229615 0.554838 32.3229615 10.600556"></polyline>
                        <polyline id="Stroke-5" points="36.2582225 6.111179 43.6007582 6.111179 43.6007582 21.9469855 36.2582225 21.9469855"></polyline>
                        <line x1="10.8790865" y1="9.5393699" x2="24.479201" y2="9.5393699" id="Stroke-6"></line>
                        <path d="M29.19236,26.5282275 L32.0077914,36.8260375 C33.19929,36.1346275 34.7225798,36.545398 35.4104929,37.743234 C36.0984059,38.94107 35.690303,40.4732965 34.4988045,41.1650865 C33.3073059,41.856867 31.784017,41.446467 31.096103,40.24827" id="Stroke-7"></path>
                    </g>
                </g>
            </g>
        </g>
    </g>
</svg>